{
	"WORK_DIR": "/tmp/geodatamine",
	"PBF_URL": "http://download.openstreetmap.fr/extracts/europe/france/bretagne/ille_et_vilaine-latest.osm.pbf",
	"PARALLEL_JOBS": "6",

	"PG_HOST": "localhost",
	"PG_USER": "postgres",
	"PG_PORT": "5432",
	"PG_DB_CLEAN": "geodatamine",
	"PG_DB_TMP": "geodatamine_next",
	"PG_DB_OLD": "geodatamine_prev",

	"CACHE_MEM": 10000,
	"FLAT_NODES": false
}
