<?xml version="1.0" encoding="UTF-8" standalone="no"?>
<!-- Created with Inkscape (http://www.inkscape.org/) -->

<svg
   xmlns:dc="http://purl.org/dc/elements/1.1/"
   xmlns:cc="http://creativecommons.org/ns#"
   xmlns:rdf="http://www.w3.org/1999/02/22-rdf-syntax-ns#"
   xmlns:svg="http://www.w3.org/2000/svg"
   xmlns="http://www.w3.org/2000/svg"
   xmlns:sodipodi="http://sodipodi.sourceforge.net/DTD/sodipodi-0.dtd"
   xmlns:inkscape="http://www.inkscape.org/namespaces/inkscape"
   width="282"
   height="82"
   id="svg2"
   version="1.1"
   inkscape:version="0.48.5 r10040"
   sodipodi:docname="logo.svg">
  <defs
     id="defs4" />
  <sodipodi:namedview
     id="base"
     pagecolor="#ffffff"
     bordercolor="#666666"
     borderopacity="1.0"
     inkscape:pageopacity="0.0"
     inkscape:pageshadow="2"
     inkscape:zoom="2.8"
     inkscape:cx="166.32342"
     inkscape:cy="36.095115"
     inkscape:document-units="px"
     inkscape:current-layer="layer1"
     showgrid="false"
     inkscape:window-width="1600"
     inkscape:window-height="842"
     inkscape:window-x="1436"
     inkscape:window-y="468"
     inkscape:window-maximized="1"
     fit-margin-top="0"
     fit-margin-left="1"
     fit-margin-right="1"
     fit-margin-bottom="0" />
  <metadata
     id="metadata7">
    <rdf:RDF>
      <cc:Work
         rdf:about="">
        <dc:format>image/svg+xml</dc:format>
        <dc:type
           rdf:resource="http://purl.org/dc/dcmitype/StillImage" />
        <dc:title></dc:title>
      </cc:Work>
    </rdf:RDF>
  </metadata>
  <g
     inkscape:label="Calque 1"
     inkscape:groupmode="layer"
     id="layer1"
     transform="translate(5.4187196e-7,-970.36218)">
    <g
       id="g3959"
       transform="matrix(1.2418078,0,0,1.1957992,-74.467833,-188.46448)">
      <g
         transform="translate(-32.425093,927.82512)"
         style="font-size:40px;font-style:normal;font-weight:normal;line-height:89.99999762%;letter-spacing:10.32999992px;word-spacing:0px;fill:#000000;fill-opacity:1;stroke:none;font-family:Sans"
         id="flowRoot2985">
        <path
           d="m 146.01562,47.651688 -5.35156,14.511718 10.72266,0 -5.3711,-14.511718 m -2.22656,-3.886719 4.47266,0 11.11328,29.160156 -4.10156,0 -2.65625,-7.480469 -13.14453,0 -2.65625,7.480469 -4.16016,0 11.13281,-29.160156"
           style="letter-spacing:0px"
           id="path3989"
           inkscape:connector-curvature="0" />
        <path
           d="m 167.55859,47.007156 0,22.675782 4.76563,0 c 4.02342,3e-6 6.96612,-0.911455 8.82812,-2.734375 1.87498,-1.822909 2.81248,-4.700511 2.8125,-8.632813 -2e-5,-3.906231 -0.93752,-6.764301 -2.8125,-8.574219 -1.862,-1.822891 -4.8047,-2.734349 -8.82812,-2.734375 l -4.76563,0 m -3.94531,-3.242187 8.10547,0 c 5.65102,2.9e-5 9.79816,1.178413 12.44141,3.535156 2.6432,2.343773 3.96481,6.015645 3.96484,11.015625 -3e-5,5.026051 -1.32815,8.717454 -3.98438,11.074219 -2.65627,2.356772 -6.79689,3.535156 -12.42187,3.535156 l -8.10547,0 0,-29.160156"
           style="letter-spacing:0px"
           id="path3991"
           inkscape:connector-curvature="0" />
        <path
           d="m 208.22266,59.25325 c 0.84633,0.286472 1.66664,0.89845 2.46093,1.835938 0.80727,0.93751 1.61457,2.226572 2.42188,3.867187 l 4.0039,7.96875 -4.23828,0 -3.73047,-7.480469 c -0.96355,-1.953115 -1.90105,-3.248687 -2.8125,-3.886718 -0.89845,-0.638009 -2.12891,-0.957019 -3.6914,-0.957032 l -4.29688,0 0,12.324219 -3.94531,0 0,-29.160156 8.90625,0 c 3.33332,2.9e-5 5.8203,0.696643 7.46094,2.089844 1.6406,1.393254 2.46091,3.496117 2.46094,6.308593 -3e-5,1.835957 -0.42971,3.359393 -1.28907,4.570313 -0.84637,1.210952 -2.08335,2.050795 -3.71093,2.519531 m -9.88282,-12.246094 0,10.351563 4.96094,0 c 1.90103,1.5e-5 3.33332,-0.436182 4.29688,-1.308594 0.97654,-0.885399 1.46482,-2.18097 1.46484,-3.886719 -2e-5,-1.705706 -0.4883,-2.988257 -1.46484,-3.847656 -0.96356,-0.87237 -2.39585,-1.308568 -4.29688,-1.308594 l -4.96094,0"
           style="letter-spacing:0px"
           id="path3993"
           inkscape:connector-curvature="0" />
        <path
           d="m 222.20703,43.764969 3.94531,0 0,29.160156 -3.94531,0 0,-29.160156"
           style="letter-spacing:0px"
           id="path3995"
           inkscape:connector-curvature="0" />
        <path
           d="m 234.00391,43.764969 18.4375,0 0,3.320312 -14.49219,0 0,8.632813 13.88672,0 0,3.320312 -13.88672,0 0,10.566407 14.84375,0 0,3.320312 -18.78906,0 0,-29.160156"
           style="letter-spacing:0px"
           id="path3997"
           inkscape:connector-curvature="0" />
        <path
           d="m 259.31641,43.764969 5.3125,0 12.92968,24.394531 0,-24.394531 3.82813,0 0,29.160156 -5.3125,0 -12.92969,-24.394531 0,24.394531 -3.82812,0 0,-29.160156"
           style="letter-spacing:0px"
           id="path3999"
           inkscape:connector-curvature="0" />
      </g>
      <g
         transform="translate(-30.657326,916.71344)"
         style="font-size:40px;font-style:normal;font-weight:normal;line-height:125%;letter-spacing:0px;word-spacing:0px;fill:#000000;fill-opacity:1;stroke:none;font-family:Sans"
         id="flowRoot3005">
        <path
           d="m 135.15234,92.514498 0,10.957032 4.96094,0 c 1.83592,1e-5 3.25519,-0.47525 4.25781,-1.42578 1.00259,-0.95051 1.50389,-2.304671 1.50391,-4.062502 -2e-5,-1.74477 -0.50132,-3.092425 -1.50391,-4.042969 -1.00262,-0.950495 -2.42189,-1.425755 -4.25781,-1.425781 l -4.96094,0 m -3.94531,-3.242188 8.90625,0 c 3.26821,2.9e-5 5.73566,0.742216 7.40234,2.226563 1.67967,1.471379 2.51951,3.632835 2.51954,6.484375 -3e-5,2.877622 -0.83987,5.052102 -2.51954,6.523442 -1.66668,1.47136 -4.13413,2.20704 -7.40234,2.20703 l -4.96094,0 0,11.71875 -3.94531,0 0,-29.16016"
           style="letter-spacing:11.10000038px"
           id="path4002"
           inkscape:connector-curvature="0" />
        <path
           d="m 173.61562,93.159029 -5.35156,14.511721 10.72266,0 -5.3711,-14.511721 m -2.22656,-3.886719 4.47266,0 11.11328,29.16016 -4.10156,0 -2.65625,-7.48047 -13.14454,0 -2.65625,7.48047 -4.16015,0 11.13281,-29.16016"
           style="letter-spacing:11.10000038px"
           id="path4004"
           inkscape:connector-curvature="0" />
        <path
           d="m 207.25468,118.43247 -11.13281,-29.16016 4.1211,0 9.23828,24.55078 9.25781,-24.55078 4.10156,0 -11.11328,29.16016 -4.47266,0"
           style="letter-spacing:11.10000038px"
           id="path4006"
           inkscape:connector-curvature="0" />
        <path
           d="m 238.17891,89.27231 3.94531,0 0,29.16016 -3.94531,0 0,-29.16016"
           style="letter-spacing:11.10000038px"
           id="path4008"
           inkscape:connector-curvature="0" />
        <path
           d="m 261.07578,89.27231 18.4375,0 0,3.320313 -14.49219,0 0,8.632817 13.88672,0 0,3.32031 -13.88672,0 0,10.5664 14.84375,0 0,3.32032 -18.78906,0 0,-29.16016"
           style="letter-spacing:11.10000038px"
           id="path4010"
           inkscape:connector-curvature="0" />
      </g>
    </g>
    <rect
       style="fill:#009cd2;fill-opacity:1;fill-rule:nonzero;stroke:none"
       id="rect3013-0"
       width="3"
       height="82"
       x="245"
       y="970.36218" />
    <g
       id="g3953"
       transform="matrix(1.0015362,0,0,1.0037639,-49.44618,4.8449981)">
      <path
         inkscape:connector-curvature="0"
         id="path3944"
         d="m 86.812817,985.80709 c -1.318193,0.74174 -3.06197,1.61751 -4.46875,2.28125 -2.638116,1.21349 -3.443521,1.75296 -5.84375,3.9375 -2.334707,2.14431 -3.591848,3.17531 -6.4375,5.1875 -1.443414,1.0028 -1.95363,1.4733 -2.5,2.4375 -0.485027,0.81776 -0.956602,2.06626 -0.9375,2.34376 0.03223,0.1952 0.143655,0.28 0.4375,0.3438 -0.05335,0.017 -0.09552,0.031 -0.125,0.031 -0.549373,0.056 -1.330212,0.3958 -2,0.9688 -0.01778,0.01 -0.01347,0.025 -0.03125,0.031 -0.190482,0.109 -0.446934,0.3278 -0.8125,0.6875 -1.041917,0.974 -1.660623,1.302 -2.46875,1.3125 -0.690208,0.013 -1.221414,-0.1446 -2.625,-0.875 -1.450371,-0.7548 -1.809954,-0.8678 -2.4375,-0.7188 -1.112826,0.2532 -1.901496,1.4873 -2.3125,3.5626 -0.36649,1.8753 -0.774311,2.6229 -2.34375,4.125 -0.862654,0.8293 -1.024793,1.0047 -1.25,1.4374 -0.170427,0.3275 -0.272302,0.5928 -0.28125,0.7813 -0.01228,0.395 0.291862,1.0265 0.65625,1.4687 0.422871,0.4729 2.706184,2.5146 4.40625,3.875 2.625413,2.1243 3.528266,2.9942 5.6875,5.5 1.922077,2.2192 2.748196,3.1015 3.5,3.6563 0.355553,0.2593 1.189367,0.608 1.625,0.6563 0.511899,0.073 1.078731,0 2.375,-0.2813 2.284611,-0.5056 3.357295,-0.4883 5.28125,0.1563 0.721483,0.2417 1.349502,0.5398 6.4375,3.1874 3.087887,1.6069 5.803883,3.0559 6.03125,3.2188 0.217292,0.1492 0.333449,0.3156 0.4375,0.5 l 0,-49.81251 z"
         style="fill:#ffffff;fill-opacity:1" />
      <g
         transform="translate(17.93205,924.61083)"
         id="g3932">
        <path
           style="fill:#f8bf11"
           id="path3887"
           d="m 33.028631,88.866105 c 1.525121,1.950011 5.576689,5.536872 7.113132,6.584203 0.86168,1.026585 7.235893,6.491152 8.906304,7.360402 3.389591,-0.46625 5.182432,-2.911519 5.887245,-5.964283 -0.493106,-6.591829 0.52074,-14.365287 -4.080674,-19.617656 -0.72729,-0.01504 -1.60426,0.51151 -1.879895,0.533269 -0.554652,0.05002 -1.317153,0.388344 -1.985073,0.957601 -0.697831,0.594992 -1.457604,1.372503 -2.498324,2.540698 -1.363619,0.991904 -3.457215,-1.63388 -5.829311,-1.629316 -1.752055,1.706601 -3.236831,7.393072 -5.633404,9.235082 z"
           inkscape:connector-curvature="0" />
        <path
           inkscape:connector-curvature="0"
           style="fill:#000000"
           d="m 68.5625,61.34375 c -1.281747,0.711584 -2.868899,1.514528 -4.1875,2.125 -2.62846,1.225755 -3.442263,1.782388 -5.84375,3.96875 -2.341665,2.134896 -3.593242,3.150739 -6.4375,5.15625 -1.438775,1.018872 -1.943774,1.510979 -2.5,2.46875 -0.478698,0.824661 -0.96576,2.033482 -0.9375,2.3125 0.03138,0.288899 0.238607,0.36495 0.96875,0.40625 0.762907,0.04183 1.085877,0.168861 1.5,0.5 1.274337,1.043091 1.944503,3.851339 2.78125,11.6875 0.468787,4.448161 0.51881,4.930656 0.5,6.09375 -0.02126,1.516991 -0.285216,2.556114 -0.875,3.5625 -0.893132,1.52583 -2.234892,2.5237 -3.46875,2.625 -0.872402,0.0416 -1.896202,-0.32545 -2.875,-1 -0.304159,-0.24087 -1.477182,-1.17848 -2.5625,-2.15625 -1.078818,-0.974386 -2.708597,-2.396491 -3.59375,-3.1875 -2.924558,-2.47176 -6.974425,-6.103864 -7.21875,-6.4375 -0.282572,-0.403074 -0.28014,-0.762253 0,-1.0625 0.102094,-0.112067 0.568113,-0.401416 1.0625,-0.65625 0.954315,-0.486301 1.368325,-0.811417 1.8125,-1.40625 0.448207,-0.600995 0.685307,-1.156256 0.84375,-1.875 0.130974,-0.600883 0.204578,-1.019324 0.34375,-2.9375 0.07376,-0.994086 0.491822,-1.58281 1.125,-1.625 0.426452,-0.02587 0.909023,0.171439 1.6875,0.75 1.224977,0.893509 2.490542,1.44932 3.3125,1.40625 0.438801,-0.01945 0.906029,-0.213889 1.34375,-0.53125 0.40781,-0.291627 1.62309,-1.604769 1.8125,-1.96875 0.213088,-0.409478 0.261493,-0.80397 0.125,-0.875 -0.168991,-0.08794 -0.48727,0.115216 -1.15625,0.75 -1.038322,0.979468 -1.662271,1.32566 -2.46875,1.34375 -0.700257,0.01555 -1.218475,-0.174318 -2.625,-0.90625 -1.447472,-0.753243 -1.811182,-0.83238 -2.4375,-0.6875 -1.108962,0.25715 -1.908183,1.48495 -2.3125,3.5625 -0.364668,1.87517 -0.771432,2.613958 -2.34375,4.125 -0.864657,0.830308 -1.020003,0.995523 -1.25,1.4375 -0.169115,0.324982 -0.245,0.602134 -0.25,0.78125 -0.01689,0.395938 0.254462,1.036395 0.625,1.46875 0.409789,0.477559 2.715217,2.534516 4.4375,3.84375 2.599613,2.178768 3.501388,2.97449 5.65625,5.5 1.910525,2.23316 2.77994,3.10008 3.53125,3.65625 0.349657,0.26455 1.168623,0.60025 1.59375,0.65625 0.536946,0.0316 1.072171,7e-4 2.375,-0.3125 2.262376,-0.47465 3.36248,-0.41427 5.3125,0.1875 0.690288,0.27662 1.323522,0.54254 6.40625,3.1875 3.093835,1.60998 5.784263,3.09022 6.03125,3.21875 0.07267,0.049 0.09803,0.10715 0.15625,0.15625 l 0,-7.28125 c -0.279183,0.0289 -0.570378,0.22284 -0.875,0.21875 C 65.826496,103.56692 64.218179,103.0819 61.5,101.75 58.977074,100.5032 58.389975,99.969985 57.75,98.40625 57.409352,97.584723 57.139867,97.27168 56.8125,97.25 c -0.353631,-0.01883 -0.382756,0.244341 -0.15625,1.03125 0.328849,1.145778 0.236152,1.84048 -0.34375,2.84375 -0.310378,0.54882 -0.396851,0.64374 -0.78125,0.90625 -0.241874,0.16322 -0.605243,0.3259 -0.8125,0.375 -0.193727,0.0231 -0.38025,0.10725 -0.40625,0.0937 -0.026,-0.0135 0.07677,-0.16958 0.25,-0.34375 0.402635,-0.37692 0.795304,-1.10924 0.90625,-1.6875 0.174742,-0.875462 0.108525,-2.290219 -0.21875,-4.34375 -0.09266,-0.552064 -0.16305,-1.01825 -0.15625,-1.03125 0.0068,-0.013 0.331826,-0.01784 0.71875,-0.03125 2.475478,-0.07466 3.487465,-1.342253 2.875,-3.59375 -0.102077,-0.375249 -0.519575,-1.343809 -0.90625,-2.15625 -1.599961,-3.401373 -3.723462,-9.019547 -3.96875,-10.46875 -0.161713,-0.943166 -0.129857,-1.940327 0.125,-2.90625 0.202533,-0.770138 0.272391,-0.900582 0.8125,-1.875 0.445405,-0.792428 0.69645,-1.170637 1,-1.5 0.503839,-0.555525 1.236729,-1.08643 1.40625,-1.03125 0.166403,0.04529 0.07418,0.192341 -0.40625,0.71875 -0.560544,0.616875 -1.055419,1.322684 -1.5625,2.28125 -0.794577,1.511037 -0.88925,2.456984 -0.4375,3.90625 0.293296,0.912523 0.484337,1.24621 0.8125,1.21875 0.31828,-0.02435 0.542608,-0.309511 1.03125,-1.34375 0.610935,-1.300991 1.971142,-3.465878 2.9375,-4.65625 1.284233,-1.594878 4.615781,-4.336154 6.28125,-5.1875 1.354685,-0.682683 1.254938,-0.575586 2.09375,-2.1875 0.276022,-0.530421 0.457559,-0.740266 0.65625,-1.0625 l 0,-3.875 z m -5.25,4.5625 c 0.29381,0.0703 0.364984,0.233871 0.21875,0.5625 -0.201146,0.48177 -0.541185,0.712486 -1.5,1.03125 -0.869878,0.290712 -1.0533,0.321035 -1.125,0.09375 -0.06858,-0.217404 0.08907,-0.345549 0.65625,-0.5625 0.422072,-0.16031 0.623432,-0.282471 0.84375,-0.53125 0.47678,-0.503532 0.694084,-0.64634 0.90625,-0.59375 z"
           id="path3930" />
      </g>
    </g>
    <g
       id="g3946"
       transform="matrix(1.0100084,0,0,1.0131916,-17.915285,-4.53465)">
      <path
         inkscape:connector-curvature="0"
         id="path3881"
         d="m 263.55794,985.46526 0,49.81254 c 0.15291,0.271 0.22542,0.6004 0.25,1.25 0.0491,1.7052 0.64656,2.7773 2.15625,3.875 0.71111,0.5187 2.03059,1.2146 2.6875,1.4375 1.44906,0.4717 2.33097,0.4111 4.625,-0.3125 2.67357,-0.8532 4.89107,-1.0993 7.71875,-0.9062 1.43747,0.094 2.10163,0.062 3.96875,-0.1563 2.2925,-0.2637 2.8292,-0.4389 3.21875,-1.1875 0.4078,-0.7837 0.23876,-1.5048 -0.78125,-3.3438 -0.97418,-1.7554 -1.3236,-2.7025 -1.46875,-3.9374 -0.098,-0.8686 -0.003,-1.4168 0.4375,-2.4063 0.2079,-0.4567 0.30484,-0.8137 0.34375,-1.0313 0.28845,-0.6971 0.41427,-1.5673 0.0625,-2.0624 -0.48411,-0.6978 -0.76723,-0.7435 -1.0625,-0.7188 1.18682,-0.4526 1.65825,-0.7151 2.28125,-1.3125 1.10231,-1.0614 1.73834,-2.5551 2.9375,-6.6875 1.3987,-4.8016 1.5394,-8.6671 0.53125,-14.1562 -0.63347,-3.4958 -0.76754,-5.14411 -0.8125,-9.65634 -0.0166,-2.25311 0.0418,-2.99943 0.3125,-4.0625 0.38463,-1.53892 0.86321,-2.84366 2.4375,-6.46875 1.46426,-3.38507 1.99495,-4.83218 2.28125,-6.125 0.79982,-3.50787 -0.40614,-7.08264 -3.28125,-9.8125 -1.22564,-1.15805 -1.77713,-1.58337 -3.71875,-2.59375 -1.88315,-0.97995 -2.2343,-1.11373 -3.65625,-1.4375 -1.75698,-0.39407 -2.92467,-0.36033 -4.53125,0.15625 -0.81194,0.24636 -1.23622,0.45114 -1.71875,0.75 -1.22155,0.77641 -2.32277,1.83246 -3.46875,3.40625 -0.57251,0.75741 -0.72169,1.06032 -1.78125,3.125 -1.12603,2.16386 -4.3109,8.88166 -5.1875,10.9375 -0.57644,1.36479 -0.69692,1.4774 -2.59375,2.4375 -0.66597,0.33718 -1.60561,0.84392 -2.09375,1.125 -0.029,0.0164 -0.0643,0.0459 -0.0937,0.0625 z"
         style="fill:#ffffff;fill-opacity:1" />
      <g
         transform="translate(194.71777,924.25369)"
         id="g3936">
        <path
           style="fill:#f8bf11"
           id="path3885"
           d="m 91.09807,63.686313 c -0.848959,1.631413 -2.971617,0.964585 -4.218475,1.059119 -1.300241,0.355845 -7.544426,0.02217 -8.883354,-0.674585 -1.914624,-1.574519 -2.863125,-6.148417 -2.09171,-8.456184 0.646021,-1.241433 2.74293,-1.41398 4.049671,-1.766443 1.300241,-0.355845 2.713299,-0.595164 4.273092,0.629512 1.338928,0.696756 3.10035,2.422825 3.555015,3.691893 1.450499,1.498191 4.367659,3.495296 3.315761,5.516688 z"
           inkscape:connector-curvature="0" />
        <path
           style="fill:#f8bf11"
           id="path3889"
           d="m 90.729169,109.18726 c 0.716911,1.66985 2.277577,3.44839 2.278747,5.60479 -2.728543,1.13237 -4.546637,1.08658 -7.206163,0.99113 -3.648657,-0.13111 -6.161403,0.22151 -7.973855,0.43471 -1.947744,0.47318 -5.426631,-0.4286 -6.735587,-1.35755 -0.586045,-1.04835 2.10987,-8.67334 3.642336,-10.82461 0.642639,-1.23493 1.702155,-6.969243 5.695916,-8.723481 2.579754,0.772536 3.478485,3.965937 4.205887,6.202911 1.657987,-0.1862 4.260933,-0.44233 5.895588,0.004 0.538473,0.1398 0.81841,-0.35053 1.551889,0.7002 0.349065,0.50378 0.215908,1.44218 -0.08385,2.1452 -0.483732,1.13591 -1.57734,3.50729 -1.270904,4.82311 z"
           inkscape:connector-curvature="0" />
        <path
           inkscape:connector-curvature="0"
           style="fill:#000000"
           d="m 68.5625,61.34375 0,3.875 c 0.524419,-0.850493 1.002042,-1.39424 2.375,-2.375 1.5748,-1.121542 2.6281,-1.951427 3.0625,-2.46875 0.614661,-0.720874 0.639505,-0.745 0.75,-0.6875 0.16899,0.08794 0.4221,1.143706 0.4375,1.8125 0.01255,0.64253 0.370034,2.320815 0.59375,2.875 0.283475,0.709178 0.46016,0.90974 1.25,1.3125 0.994712,0.501111 1.300804,0.528833 2.59375,0.21875 1.210774,-0.295026 1.975911,-0.412711 3.65625,-0.5625 1.227358,-0.104682 1.499376,-0.10669 2.625,0 C 86.54772,65.39673 87.246472,65.24699 87.375,65 87.493381,64.772512 87.35187,64.454822 87.0625,64.3125 86.893509,64.22456 86.581899,64.19917 85.96875,64.21875 84.139184,64.27436 80.629921,64.025151 79.625,63.75 78.956004,63.575321 78.070918,63.062268 77.6875,62.65625 77.420282,62.360259 76.53831,60.498402 76.59375,60.3125 c 0.05206,-0.179403 0.451253,-0.0342 1.03125,0.375 0.712842,0.503107 2.115901,1.208689 2.78125,1.40625 0.808872,0.239208 1.19846,0.29496 2.59375,0.34375 0.687763,0.02751 1.858167,0.139787 2.59375,0.25 2.494323,0.381174 3.262429,0.365229 3.46875,-0.03125 C 89.184263,62.422262 89.10249,62.118381 88.875,62 c -0.168991,-0.08794 -0.576868,-0.0071 -1,0.21875 -0.152141,0.08602 -0.643333,0.05906 -2.40625,-0.15625 -3.244495,-0.399858 -4.878204,-0.820555 -6.5,-1.65625 C 77.639439,59.722759 77.184685,59.205635 77.0625,58.25 76.975869,57.527619 76.78201,57.019546 76.5,56.625 c -0.362329,-0.49416 -0.387057,-0.77277 -0.1875,-1.15625 0.304407,-0.584968 1.029322,-1.008596 2.03125,-1.15625 0.19711,-0.02958 0.707105,-0.145335 1.125,-0.25 0.417894,-0.104665 1.074531,-0.22208 1.46875,-0.28125 0.791819,-0.124834 0.994919,-0.271592 1.375,-0.875 C 82.790142,52.147115 82.836163,50.570629 82.40625,50 81.896019,49.329758 80.698543,49.26489 80.125,49.875 c -0.450253,0.484294 -0.84394,1.65324 -0.78125,2.4375 0.01035,0.170581 0.133612,0.401286 0.28125,0.59375 0.131519,0.175818 0.21118,0.36075 0.1875,0.40625 -0.0575,0.110494 -0.385086,0.334983 -0.71875,0.5 -0.799176,0.377058 -0.990062,-0.724396 -0.4375,-2.46875 C 78.942546,50.460265 79.622833,49.04821 80,48.625 c 0.961386,-1.085582 2.216555,-1.444037 3.25,-0.90625 1.495185,0.761549 1.553408,2.674262 0.15625,5.375 -0.344995,0.662965 -0.323748,0.718209 0.28125,1 0.562617,0.267997 1.448052,0.886892 1.8125,1.25 0.406299,0.409664 0.466648,0.38732 0.8125,-0.53125 0.623264,-1.658004 1.900454,-2.980854 3.34375,-3.46875 0.919288,-0.306295 1.630782,-0.126452 2.71875,0.6875 1.457118,1.088652 1.74984,1.832869 1.4375,3.71875 -0.228718,1.375994 -0.4427,2.053094 -0.96875,2.96875 -0.478963,0.841043 -0.715927,1.114176 -1.125,1.28125 -0.475129,0.198777 -1.148696,-0.18442 -1.375,-0.78125 -0.125754,-0.329751 -0.188534,-0.219804 0.6875,-1.09375 0.536337,-0.538615 1.0022,-1.4343 1,-1.90625 -0.0027,-0.439186 -0.19439,-0.927133 -0.53125,-1.375 -0.224838,-0.282197 -0.393405,-0.398651 -0.8125,-0.625 C 90.050534,53.887284 89.548215,53.865138 89,54.125 c -0.762766,0.354707 -1.558786,1.44613 -1.6875,2.3125 -0.135479,0.87937 0.47069,1.93168 2.125,3.59375 1.089963,1.095821 1.272469,1.308694 1.40625,1.75 0.183658,0.599417 -0.117836,1.185603 -1.09375,2.15625 -1.508603,1.486379 -1.753995,2.402599 -1.3125,5.09375 0.286017,1.767749 0.158737,3.489177 -0.46875,6.21875 -0.303334,1.328906 -0.32652,1.747265 -0.28125,3.40625 0.138788,5.39976 -0.0494,6.255281 -2.28125,10.71875 l -1.3125,2.625 0,0.40625 c -0.0093,0.573356 0.06264,0.679783 0.9375,1.09375 0.546236,0.267732 0.818645,0.364 1.09375,0.375 1.361996,0.08102 3.051081,-1.59854 4.09375,-4.0625 0.640378,-1.500422 1.115659,-3.270654 1.25,-4.6875 0.17605,-1.766829 0.03594,-4.900359 -0.3125,-7.46875 C 91.08647,77.107833 91.04897,76.651 91.0625,76.625 c 0.03721,-0.0715 0.308455,0.21682 0.5,0.53125 0.644012,1.111549 1.0063,3.36595 1,6.1875 -0.0066,3.044392 -0.374221,4.680878 -1.5,6.8125 -0.682961,1.296548 -1.256486,2.081247 -2.34375,3.25 -0.370137,0.39383 -0.69116,0.79024 -0.71875,0.875 -0.03773,0.10426 0.05205,0.25351 0.3125,0.5625 0.189753,0.22264 0.457319,0.62876 0.59375,0.90625 0.266891,0.518834 0.51949,1.27751 0.46875,1.375 -0.06426,0.123494 -0.391507,-0.159146 -0.71875,-0.59375 -0.724922,-0.971938 -0.990057,-1.191919 -2.0625,-1.75 -0.74096,-0.385583 -1.108166,-0.50548 -1.5,-0.59375 -1.214764,-0.268713 -1.99762,-0.05536 -2.65625,0.75 l -0.3125,0.375 -0.5625,-0.25 c -0.868896,-0.377821 -1.306833,-0.433658 -1.90625,-0.25 -0.385397,0.121577 -0.600112,0.244532 -0.90625,0.53125 -0.392753,0.3738 -0.409772,0.363792 -1.96875,3.34375 -1.805887,3.45444 -3.547853,6.60658 -4.21875,7.5625 -0.264818,0.36603 -0.856745,1.1594 -1.3125,1.78125 -0.465636,0.62496 -0.956136,1.29904 -1.09375,1.5 -0.248171,0.34997 -0.263614,0.36325 -0.46875,0.28125 -0.293014,-0.11944 -0.46015,-0.53578 -0.375,-0.9375 0.152064,-0.68902 0.940781,-1.78577 2.625,-3.59375 0.62713,-0.68134 0.840342,-0.9664 1.09375,-1.4375 0.544021,-1.01368 0.485221,-1.572 -0.15625,-1.625 -0.386129,-0.0357 -0.767697,0.0845 -1.71875,0.53125 -1.009509,0.48086 -1.767887,0.53958 -2.59375,0.625 l 0,7.28125 c 0.372952,0.31453 0.532425,0.64933 0.5625,1.59375 0.03718,1.75389 0.619807,2.82767 2.15625,3.875 0.705813,0.53249 2.017959,1.2192 2.65625,1.46875 1.446897,0.50515 2.33915,0.36648 4.625,-0.34375 2.674629,-0.83832 4.887115,-1.09953 7.71875,-0.90625 1.433757,0.10184 2.128521,0.0905 4,-0.125 2.281813,-0.25804 2.798535,-0.47129 3.1875,-1.21875 0.409259,-0.78646 0.237762,-1.50843 -0.78125,-3.34375 -0.97431,-1.7625 -1.328188,-2.66848 -1.46875,-3.90625 -0.10401,-0.86358 0.0087,-1.45473 0.4375,-2.4375 0.391084,-0.87851 0.46324,-1.24905 0.28125,-1.34375 -0.155992,-0.0812 -0.386084,0.0378 -0.71875,0.34375 -0.472339,0.4315 -1.134921,1.79317 -1.34375,2.75 -0.212474,0.97972 -0.238599,1.80719 -0.0625,2.46875 0.197655,0.74712 0.399646,1.01875 1.375,1.90625 1.298481,1.1713 1.780976,1.99046 1.625,2.71875 -0.130709,0.5845 -0.835958,1.08452 -1.9375,1.3125 -0.930697,0.20124 -2.353334,0.10092 -5.34375,-0.40625 -0.722319,-0.11983 -1.662842,-0.24 -2.0625,-0.25 -1.051806,-0.0105 -2.527234,0.16559 -4.625,0.59375 -1.282005,0.24144 -2.02805,0.373 -2.5,0.375 -1.65116,-0.0333 -3.191613,-0.92203 -3.9375,-2.21875 -0.337857,-0.5888 -0.56917,-1.52635 -0.53125,-2.25 0.01915,-0.57647 0.04667,-0.68301 0.40625,-1.4375 0.311967,-0.64711 0.528194,-1.01513 1.3125,-2.09375 0.837893,-1.14984 1.064346,-1.48757 1.65625,-2.625 0.642638,-1.23494 0.702011,-1.3633 1.09375,-2.6875 0.231914,-0.7631 0.46932,-1.64734 0.5625,-1.9375 0.197295,-0.648967 1.418436,-3.0304 1.84375,-3.59375 0.586339,-0.793425 1.400987,-1.200504 2.03125,-1.0625 1.269349,0.338417 0.84476,1.003476 0.78125,2.09375 0.01602,2.0485 0.731319,3.54228 2.03125,4.21875 1.429924,0.7441 4.205394,0.53678 7.15625,-0.5625 1.40118,-0.51807 1.834137,-0.76158 2.5,-1.40625 1.102056,-1.070197 1.768001,-2.554734 2.96875,-6.6875 1.395192,-4.807996 1.536939,-8.69179 0.53125,-14.1875 -0.638355,-3.487413 -0.76757,-5.13957 -0.8125,-9.65625 -0.01934,-2.248458 0.04644,-2.980301 0.3125,-4.03125 0.385567,-1.550424 0.868188,-2.881159 2.4375,-6.5 1.46393,-3.384589 2.01958,-4.800725 2.3125,-6.09375 0.79178,-3.505574 -0.438,-7.113902 -3.3125,-9.84375 -1.2272,-1.16542 -1.782732,-1.552882 -3.71875,-2.5625 -1.87752,-0.979176 -2.230943,-1.113077 -3.65625,-1.4375 -1.750121,-0.398628 -2.925637,-0.389109 -4.53125,0.125 -0.803145,0.257705 -1.247178,0.4782 -1.71875,0.78125 -1.224957,0.76671 -2.317453,1.813365 -3.46875,3.375 -0.562929,0.764309 -0.718941,1.067727 -1.78125,3.125 -1.122926,2.157885 -4.318653,8.886929 -5.1875,10.9375 -0.575849,1.360547 -0.703584,1.50306 -2.59375,2.46875 -0.664211,0.339915 -1.594415,0.847962 -2.09375,1.125 -0.108438,0.06137 -0.260562,0.123968 -0.375,0.1875 z M 96.4375,46.75 C 96.633083,46.640019 96.794836,46.682471 97,46.84375 97.411006,47.165007 98.007116,48.686067 97.84375,49 97.738899,49.201491 97.579749,49.188944 97,48.90625 96.545436,48.684575 96.511076,48.67049 95.875,48.75 c -0.714866,0.08806 -1.06434,0.04464 -1.125,-0.15625 -0.06302,-0.196339 0.07184,-0.318165 0.40625,-0.46875 0.245888,-0.107447 0.343564,-0.237012 0.5625,-0.5625 0.286149,-0.438775 0.523167,-0.702519 0.71875,-0.8125 z m -14.71875,3.6875 c 0.190079,-2.03e-4 0.22886,0.04417 0.3125,0.34375 0.05559,0.210638 0.03308,0.513795 -0.03125,0.84375 -0.140124,0.761317 -0.192152,0.932848 -0.375,1.09375 -0.246047,0.218868 -0.447339,0.07604 -0.34375,-0.25 0.16553,-0.508563 0.23312,-1.031175 0.15625,-1.34375 -0.104665,-0.417895 0.0059,-0.6821 0.28125,-0.6875 z M 81.375,54.15625 c -0.217557,0.05301 -0.3447,0.224584 -0.34375,0.46875 0.0044,0.134435 0.05599,0.18182 0.21875,0.25 0.182255,0.07832 0.277624,0.04837 0.5,-0.125 0.20911,-0.163756 0.289256,-0.18588 0.40625,-0.125 0.194989,0.101467 0.5049,0.101672 0.5,0 7.95e-4,-0.04915 -0.210012,-0.194119 -0.4375,-0.3125 -0.321733,-0.167424 -0.626193,-0.209262 -0.84375,-0.15625 z m 8.875,0.53125 c 0.13576,-0.08628 0.176175,-0.06728 0.40625,0.09375 0.350187,0.231789 0.67623,0.745914 0.71875,1.15625 0.0394,0.400453 -0.269068,1.24917 -0.5,1.34375 -0.07256,0.02832 -0.19675,0.04397 -0.28125,0 -0.11699,-0.06088 -0.11063,-0.127219 -0.03125,-0.375 0.220442,-0.661702 0.116582,-1.410304 -0.21875,-1.75 C 90.076002,54.893022 90.071064,54.809138 90.25,54.6875 z m -5.59375,0.9375 c -0.108701,0.03429 0.06905,0.386084 0.375,0.71875 0.1804,0.192994 0.33725,0.34035 0.34375,0.34375 0.0096,0.0133 0.09909,0.02655 0.1875,0.03125 0.101672,-0.0049 0.18235,-0.05751 0.25,-0.1875 0.135292,-0.259987 -0.01297,-0.466339 -0.625,-0.71875 -0.260516,-0.102527 -0.5016,-0.1969 -0.53125,-0.1875 z m 7.5625,9.90625 c 0.039,0.02029 0.162261,0.344748 0.28125,0.6875 0.143663,0.438188 0.340326,0.786629 0.59375,1.125 0.208457,0.281932 0.405,0.51434 0.4375,0.53125 0.0325,0.01691 0.09987,0.182256 0.15625,0.34375 0.0847,0.23405 0.0736,0.329761 -0.03125,0.53125 -0.13191,0.253486 -0.757037,0.79903 -0.9375,0.8125 -0.275635,0.02176 -0.418439,-0.19325 -0.75,-0.96875 C 91.659281,67.871042 91.60531,67.734237 91.625,67.125 91.63613,66.436972 91.772917,65.918029 92,65.65625 c 0.07335,-0.07747 0.17975,-0.14529 0.21875,-0.125 z"
           id="path3895" />
      </g>
    </g>
    <rect
       style="fill:#fc8200;fill-opacity:1;fill-rule:nonzero;stroke:none"
       id="rect3013"
       width="3"
       height="82"
       x="37"
       y="970.36218" />
  </g>
</svg>
